{
  "openapi": "3.0.1",
  "info": {
    "title": "DrinksMachineApi",
    "version": "v1"
  },
  "paths": {
    "/api/Coin/coin-get-all": {
      "get": {
        "tags": [
          "Coin"
        ],
        "operationId": "CoinGetAll",
        "responses": {
          "200": {
            "description": "Success",
            "content": {
              "text/plain": {
                "schema": {
                  "$ref": "#/components/schemas/CoinDtoIEnumerableResponseDto"
                }
              },
              "application/json": {
                "schema": {
                  "$ref": "#/components/schemas/CoinDtoIEnumerableResponseDto"
                }
              },
              "text/json": {
                "schema": {
                  "$ref": "#/components/schemas/CoinDtoIEnumerableResponseDto"
                }
              }
            }
          },
          "400": {
            "description": "Bad Request",
            "content": {
              "text/plain": {
                "schema": {
                  "$ref": "#/components/schemas/ProblemDetails"
                }
              },
              "application/json": {
                "schema": {
                  "$ref": "#/components/schemas/ProblemDetails"
                }
              },
              "text/json": {
                "schema": {
                  "$ref": "#/components/schemas/ProblemDetails"
                }
              }
            }
          }
        }
      }
    },
    "/api/Product/product-get-all": {
      "get": {
        "tags": [
          "Product"
        ],
        "operationId": "ProductGetAll",
        "responses": {
          "200": {
            "description": "Success",
            "content": {
              "application/json": {
                "schema": {
                  "$ref": "#/components/schemas/ProductDtoIEnumerableResponseDto"
                }
              }
            }
          },
          "400": {
            "description": "Bad Request",
            "content": {
              "application/json": {
                "schema": {
                  "$ref": "#/components/schemas/ProblemDetails"
                }
              }
            }
          }
        }
      }
    },
    "/api/Product/product-sale": {
      "post": {
        "tags": [
          "Product"
        ],
        "operationId": "ProductSale",
        "requestBody": {
          "content": {
            "application/json": {
              "schema": {
                "$ref": "#/components/schemas/IncomingProductSaleDto"
              }
            },
            "text/json": {
              "schema": {
                "$ref": "#/components/schemas/IncomingProductSaleDto"
              }
            },
            "application/*+json": {
              "schema": {
                "$ref": "#/components/schemas/IncomingProductSaleDto"
              }
            }
          }
        },
        "responses": {
          "200": {
            "description": "Success",
            "content": {
              "application/json": {
                "schema": {
                  "$ref": "#/components/schemas/ResultProductSaleDtoResponseDto"
                }
              }
            }
          },
          "400": {
            "description": "Bad Request",
            "content": {
              "application/json": {
                "schema": {
                  "$ref": "#/components/schemas/ProblemDetails"
                }
              }
            }
          }
        }
      }
    }
  },
  "components": {
    "schemas": {
      "CoinDto": {
        "type": "object",
        "properties": {
          "coinName": {
            "type": "string",
            "nullable": true
          },
          "coinValue": {
            "type": "number",
            "format": "double"
          },
          "qtyAvailable": {
            "type": "integer",
            "format": "int32"
          }
        },
        "additionalProperties": false
      },
      "CoinDtoIEnumerableResponseDto": {
        "type": "object",
        "properties": {
          "error": {
            "$ref": "#/components/schemas/Error"
          },
          "data": {
            "type": "array",
            "items": {
              "$ref": "#/components/schemas/CoinDto"
            },
            "nullable": true
          }
        },
        "additionalProperties": false
      },
      "Error": {
        "type": "object",
        "properties": {
          "message": {
            "type": "string",
            "nullable": true
          },
          "exceptionMessage": {
            "type": "string",
            "nullable": true
          },
          "code": {
            "type": "integer",
            "format": "int32"
          }
        },
        "additionalProperties": false
      },
      "IncomingProductSaleDto": {
        "type": "object",
        "properties": {
          "productsToSale": {
            "type": "array",
            "items": {
              "$ref": "#/components/schemas/ProductToSaleDto"
            },
            "nullable": true
          },
          "billCoinCounterTotal": {
            "maximum": 99,
            "minimum": 0,
            "type": "number",
            "format": "double"
          }
        },
        "additionalProperties": false
      },
      "ProblemDetails": {
        "type": "object",
        "properties": {
          "type": {
            "type": "string",
            "nullable": true
          },
          "title": {
            "type": "string",
            "nullable": true
          },
          "status": {
            "type": "integer",
            "format": "int32",
            "nullable": true
          },
          "detail": {
            "type": "string",
            "nullable": true
          },
          "instance": {
            "type": "string",
            "nullable": true
          }
        },
        "additionalProperties": { }
      },
      "ProductDto": {
        "type": "object",
        "properties": {
          "productId": {
            "type": "integer",
            "format": "int32"
          },
          "productName": {
            "type": "string",
            "nullable": true
          },
          "price": {
            "type": "number",
            "format": "double"
          },
          "qtyAvailable": {
            "type": "integer",
            "format": "int32"
          }
        },
        "additionalProperties": false
      },
      "ProductDtoIEnumerableResponseDto": {
        "type": "object",
        "properties": {
          "error": {
            "$ref": "#/components/schemas/Error"
          },
          "data": {
            "type": "array",
            "items": {
              "$ref": "#/components/schemas/ProductDto"
            },
            "nullable": true
          }
        },
        "additionalProperties": false
      },
      "ProductToSaleDto": {
        "type": "object",
        "properties": {
          "productId": {
            "type": "integer",
            "format": "int32"
          },
          "qty": {
            "maximum": 99,
            "minimum": 1,
            "type": "integer",
            "format": "int32"
          }
        },
        "additionalProperties": false
      },
      "ResultProductSaleDto": {
        "type": "object",
        "properties": {
          "coinsToReturn": {
            "type": "array",
            "items": {
              "$ref": "#/components/schemas/CoinDto"
            },
            "nullable": true
          },
          "drinksToReturn": {
            "type": "array",
            "items": {
              "type": "string"
            },
            "nullable": true
          },
          "newAvailableProducts": {
            "type": "array",
            "items": {
              "$ref": "#/components/schemas/ProductDto"
            },
            "nullable": true
          },
          "newAvailableCoins": {
            "type": "array",
            "items": {
              "$ref": "#/components/schemas/CoinDto"
            },
            "nullable": true
          }
        },
        "additionalProperties": false
      },
      "ResultProductSaleDtoResponseDto": {
        "type": "object",
        "properties": {
          "error": {
            "$ref": "#/components/schemas/Error"
          },
          "data": {
            "$ref": "#/components/schemas/ResultProductSaleDto"
          }
        },
        "additionalProperties": false
      }
    }
  }
}